7,7,2,,,,
1,1,1,1,1,1,8
1,1,1,1,1,1,1
1,1,3,1,1,1,1
1,1,1,2,1,1,1
1,1,1,1,7,1,1
1,1,1,1,1,1,1
4,1,1,1,1,1,1
,,,,,,
,,,,,,
empty,empty,empty,empty,empty,empty,empty
empty,empty,empty,empty,empty,empty,empty
empty,empty,empty,empty,empty,empty,empty
empty,empty,empty,empty,empty,empty,empty
empty,empty,empty,empty,empty,empty,empty
empty,empty,empty,empty,empty,empty,empty
empty,empty,empty,empty,empty,empty,empty
