9,14,,,,,,,,,,,,
1,1,1,1,1,1,1,1,1,1,1,1,1,0
1,0,1,0,1,0,1,0,1,0,1,0,1,0
1,1,4,1,1,7,2,3,1,1,6,1,1,0
1,0,1,0,1,0,5,0,1,0,1,0,1,0
1,1,1,1,1,1,1,1,1,1,1,1,1,0
0,0,0,0,1,0,1,0,1,0,0,0,0,0
0,0,0,0,1,1,8,1,1,0,0,0,0,0
0,0,0,0,1,0,1,0,1,0,0,0,0,0
0,0,0,0,1,1,1,1,1,0,0,0,0,0
,,,,,,,,,,,,,
,,,,,,,,,,,,,
empty,empty,empty,empty,empty,empty,empty,empty,empty,empty,empty,empty,empty,empty
empty,empty,empty,empty,empty,empty,empty,empty,empty,empty,empty,empty,empty,empty
empty,empty,empty,empty,empty,empty,empty,empty,empty,empty,empty,empty,empty,empty
empty,empty,empty,empty,empty,empty,empty,empty,empty,empty,empty,empty,empty,empty
empty,empty,empty,empty,Reverse,empty,empty,empty,Reverse,empty,empty,empty,empty,empty
empty,empty,empty,empty,empty,empty,empty,empty,empty,empty,empty,empty,empty,empty
empty,empty,empty,empty,empty,empty,empty,empty,empty,empty,empty,empty,empty,empty
empty,empty,empty,empty,empty,empty,empty,empty,empty,empty,empty,empty,empty,empty
empty,empty,empty,empty,empty,empty,empty,empty,empty,empty,empty,empty,empty,empty
