7,7,,,,,
1,1,1,1,1,1,1
1,8,1,2,1,6,1
1,1,0,1,0,1,1
1,1,1,1,1,1,1
1,1,0,1,0,1,1
1,1,1,1,1,1,1
1,3,1,1,1,7,1
,,,,,,
,,,,,,
empty,empty,empty,empty,empty,empty,empty
empty,empty,empty,empty,empty,empty,empty
empty,empty,empty,empty,empty,empty,empty
empty,empty,empty,ColorRed,empty,empty,empty
empty,empty,empty,empty,empty,empty,empty
empty,empty,empty,empty,empty,empty,empty
empty,empty,empty,empty,empty,empty,empty
