11,11,,,,,,,,,
3,1,1,1,1,1,1,1,1,1,5
1,0,1,0,0,0,0,0,1,0,1
1,1,1,1,1,1,1,1,1,1,1
1,0,1,0,1,0,1,0,1,0,1
1,0,1,1,1,4,1,1,1,0,1
1,0,1,0,6,2,10,0,1,0,1
1,0,1,1,1,8,1,1,1,0,1
1,0,1,0,1,0,1,0,1,0,1
1,1,1,1,1,1,1,1,1,1,1
1,0,1,0,0,0,0,0,1,0,1
9,1,1,1,1,1,1,1,1,1,7
,,,,,,,,,,
,,,,,,,,,,
empty,empty,empty,empty,empty,empty,empty,empty,empty,empty,empty
empty,empty,empty,empty,empty,empty,empty,empty,empty,empty,empty
empty,empty,empty,empty,empty,empty,empty,empty,empty,empty,empty
empty,empty,empty,empty,empty,empty,empty,empty,empty,empty,empty
empty,empty,empty,empty,empty,empty,empty,empty,empty,empty,empty
empty,empty,empty,empty,empty,empty,empty,empty,empty,empty,empty
empty,empty,empty,empty,empty,empty,empty,empty,empty,empty,empty
empty,empty,empty,empty,empty,empty,empty,empty,empty,empty,empty
empty,empty,empty,empty,empty,empty,empty,empty,empty,empty,empty
empty,empty,empty,empty,empty,empty,empty,empty,empty,empty,empty
empty,empty,empty,empty,empty,empty,empty,empty,empty,empty,empty
